PESEL,FirstName,LastName,Address,DonationDate,BloodAmount,BloodType,Rh
97072062784,Chris,Raymond,"Warner, NH",11.05.2019,450,A,Rh+
96121881657,Lino,Pace,"East Natchitoches, PA",11.05.2019,450,A,Rh+
83112755431,Florencio,George,"Lyon, WV",11.05.2019,450,A,Rh+
81102931324,Alfred,Mercer,"Willow Run, IL",11.05.2019,450,A,Rh+
98091577848,Lucius,Ochoa,"Conyersville, AZ",11.05.2019,450,A,Rh+
88062826253,Lincoln,Mcdowell,"Mount Baker, NY",11.05.2019,450,A,Rh+
72020621794,Isaiah,Porter,"Farmington Lake, OK",11.05.2019,450,A,Rh+
98122989624,Guy,Winters,"Martins Corner, TX",11.05.2019,450,A,Rh+
59081945982,Federico,Kirk,"Pickerel Narrows, MT",11.05.2019,450,A,Rh+
91022039723,Archie,Neal,"Willaha, OH",11.05.2019,450,A,Rh+
77042534262,Linwood,Donaldson,"Center, MA",11.05.2019,450,A,Rh+
61061772121,Charlie,Knight,"Spring City, MS",11.05.2019,450,A,Rh+
88011566861,Brant,Merritt,"Mittenlane, TX",11.05.2019,450,A,Rh+
99070478398,Melvin,York,"East Waterford, ME",11.05.2019,450,A,Rh+
79120236734,Leif,Conway,"Coltman, WV",11.05.2019,450,A,Rh+
73080915546,Reinaldo,Lowery,"Scottsville, KS",11.05.2019,450,A,Rh+
97040692678,Derick,Walter,"Hebron, AZ",11.05.2019,450,A,Rh+
62051923455,Jim,Gray,"Longview, MA",11.05.2019,450,A,Rh+
63092869333,Rufus,Vega,"Emerson, MT",11.05.2019,450,A,Rh+
92101466528,Lynwood,Williamson,"North Knoxville, AL",11.05.2019,450,A,Rh+
78062892596,Brandon,Nash,"Momford Landing, IN",11.05.2019,450,A,Rh+
91112887571,James,Hartman,"Ipswich, IA",11.05.2019,450,A,Rh+
80020289179,Ralph,Barr,"Storms, TX",11.05.2019,450,A,Rh+
64092912564,Sid,Mckinney,"Kalauao, SD",11.05.2019,450,A,Rh+
62050838518,Julian,Boyle,"Farwell, FL",11.05.2019,450,A,Rh+
86040856357,Tyler,Jackson,"Brentwood Village, MT",11.05.2019,450,A,Rh+
63080473715,Elden,Jennings,"Wilhelm Park, MT",11.05.2019,450,A,Rh+
68022284446,Danilo,Townsend,"Bannister Acres, NC",11.05.2019,450,A,Rh+
67100369431,Mervin,Briggs,"Bent Pine, VA",11.05.2019,450,A,Rh+
80022924623,Anibal,Holloway,"Mitchell, AZ",11.05.2019,450,A,Rh+
61020815878,Agustin,Holmes,"Social Circle, MO",11.05.2019,450,A,Rh+
86123134181,Donte,Welch,"Kreutzberg, NY",11.05.2019,450,A,Rh+
98080418141,Nathanial,Duke,"Cimarron, WA",11.05.2019,450,A,Rh+
82010731518,Stephen,Meyer,"Brookhaven, DC",11.05.2019,450,0,Rh+
91100751853,Merlin,Gaines,"Montverde Junction, NJ",11.05.2019,450,0,Rh+
66050718216,Marion,Underwood,"Midland City, AK",11.05.2019,450,0,Rh+
56011694635,Anderson,Roberts,"Sacramento, ME",11.05.2019,450,0,Rh+
92122049399,Kenneth,Baird,"Del Rey Oaks, RI",11.05.2019,450,0,Rh+
54042777354,Darwin,Barnett,"Coal Creek, OK",11.05.2019,450,0,Rh+
95073024451,Warren,Hutchinson,"Rabbitown, TN",11.05.2019,450,0,Rh+
57050228434,Gilbert,Wright,"Fairland, GA",11.05.2019,450,0,Rh+
99030434664,Toney,King,"Gaskil, DE",11.05.2019,450,0,Rh+
59082369798,Newton,Ayers,"Morgan Mill, OK",11.05.2019,450,0,Rh+
81121249152,Dante,Gentry,"Merrimac South, AL",11.05.2019,450,0,Rh+
95010551923,Elvis,Fuller,"Stanardsville, NH",11.05.2019,450,0,Rh+
95111184431,Diego,Newman,"Two Brooks, WI",11.05.2019,450,0,Rh+
80121592147,Andy,Sawyer,"Curriers, NM",11.05.2019,450,0,Rh+
84051573478,Laverne,Santos,"Skookumchuck, VA",11.05.2019,450,0,Rh+
63041682792,German,Bishop,"Edgerton, RI",11.05.2019,450,0,Rh+
61070597922,Bryant,Hood,"Slater, MO",11.05.2019,450,0,Rh+
64040136459,Luke,Huang,"Warner, NH",11.05.2019,450,0,Rh+
83013177679,Samuel,Cooper,"East Natchitoches, PA",11.05.2019,450,0,Rh+
71102045572,Rene,Ortiz,"Lyon, WV",11.05.2019,450,0,Rh+
74042381795,Charley,Vincent,"Willow Run, IL",11.05.2019,450,0,Rh+
67102011923,Hank,Wilson,"Conyersville, AZ",11.05.2019,450,0,Rh+
77041455331,Mikel,Bowen,"Mount Baker, NY",11.05.2019,450,0,Rh+
67031456332,Gaylord,Bond,"Farmington Lake, OK",11.05.2019,450,0,Rh+
92032163615,Francis,Miller,"Martins Corner, TX",11.05.2019,450,0,Rh+
80040369677,Monty,Franco,"Pickerel Narrows, MT",11.05.2019,450,0,Rh+
99021073795,Tuan,Scott,"Willaha, OH",11.05.2019,450,0,Rh+
54040396315,Cleo,Cole,"Center, MA",11.05.2019,450,0,Rh+
62050698772,Douglass,Crane,"Spring City, MS",11.05.2019,450,0,Rh+
94110459678,Jerrell,May,"Mittenlane, TX",11.05.2019,450,0,Rh+
85082316515,Ray,Rosario,"East Waterford, ME",11.05.2019,450,B,Rh+
60051548416,Alfonso,Mosley,"Coltman, WV",11.05.2019,450,B,Rh+
93060418465,Garfield,Gonzales,"Scottsville, KS",11.05.2019,450,B,Rh+
76042286742,Brian,Richardson,"Hebron, AZ",11.05.2019,450,B,Rh+
60041636752,Kieth,Macdonald,"Longview, MA",11.05.2019,450,B,Rh+
92070789189,Rodrigo,Garrett,"Emerson, MT",11.05.2019,450,B,Rh+
93092583872,Kenton,Dudley,"North Knoxville, AL",11.05.2019,450,B,Rh+
83112323357,Matthew,Hurley,"Momford Landing, IN",11.05.2019,450,B,Rh+
60010572393,Lon,Moody,"Ipswich, IA",11.05.2019,450,B,Rh+
68082018458,Markus,Bonilla,"Storms, TX",11.05.2019,450,B,Rh+
55050348112,Truman,Frost,"Kalauao, SD",11.05.2019,450,B,Rh+
82031121767,Jessie,Gross,"Farwell, FL",11.05.2019,450,B,Rh+
62041761559,Ellsworth,Hogan,"Brentwood Village, MT",11.05.2019,450,B,Rh+
56050223586,Ignacio,Boone,"Wilhelm Park, MT",11.05.2019,450,B,Rh+
80042422666,Laverne,Ward,"Bannister Acres, NC",11.05.2019,450,B,Rh+
86102259249,Paris,Benitez,"Bent Pine, VA",11.05.2019,450,AB,Rh+
91030559291,Daryl,Fowler,"Mitchell, AZ",11.05.2019,450,AB,Rh+
76072877837,Lyndon,Logan,"Social Circle, MO",11.05.2019,450,AB,Rh+
63030544979,Israel,Best,"Kreutzberg, NY",11.05.2019,450,AB,Rh+
55050635247,Ian,Rosales,"Cimarron, WA",11.05.2019,450,AB,Rh+
66100741858,Ali,Nichols,"Brookhaven, DC",11.05.2019,450,AB,Rh+
96081875262,Stanton,Lester,"Montverde Junction, NJ",11.05.2019,450,AB,Rh+
82041629723,Keenan,Singh,"Midland City, AK",11.05.2019,450,0,Rh-
81030572123,Mckinley,Weaver,"Sacramento, ME",11.05.2019,450,0,Rh-
88052411812,Mel,Lutz,"Del Rey Oaks, RI",11.05.2019,450,0,Rh-
68100991783,Bernardo,Wiley,"Coal Creek, OK",11.05.2019,450,0,Rh-
79120974351,Jimmie,Washington,"Rabbitown, TN",11.05.2019,450,0,Rh-
79030458734,Erwin,Frank,"Fairland, GA",11.05.2019,450,0,Rh-
59042259732,Daren,Jordan,"Gaskil, DE",11.05.2019,450,A,Rh-
58022784923,Winston,Stout,"Morgan Mill, OK",11.05.2019,450,A,Rh-
75102066348,Bill,Meadows,"Merrimac South, AL",11.05.2019,450,A,Rh-
99090315927,Geraldo,Leonard,"Stanardsville, NH",11.05.2019,450,A,Rh-
83061715227,Mac,Key,"Two Brooks, WI",11.05.2019,450,A,Rh-
68061829341,Gail,Roy,"Curriers, NM",11.05.2019,450,A,Rh-
95032619889,Dalton,Beasley,"Skookumchuck, VA",11.05.2019,450,B,Rh-
88030273931,Phil,Craig,"Edgerton, RI",11.05.2019,450,B,Rh-
66042338778,Merlin,Richard,"Slater, MO",11.05.2019,450,AB,Rh-
